__Hpowerup 28 0 CODE
__Lpowerup 28 0 CODE
_DA 4A5 0 ABS
_DC 19 0 ABS
_BF 4A0 0 ABS
_UA 4A1 0 ABS
_PD 1B 0 ABS
_RD C60 0 ABS
_TO 1C 0 ABS
_WR C61 0 ABS
_RW 4A2 0 ABS
_RA0 28 0 ABS
_RB0 30 0 ABS
_RA1 29 0 ABS
_RC0 38 0 ABS
_RB1 31 0 ABS
_RD0 40 0 ABS
_RA2 2A 0 ABS
_RC1 39 0 ABS
_CM0 4E0 0 ABS
_RB2 32 0 ABS
_RD1 41 0 ABS
_RE0 48 0 ABS
_RA3 2B 0 ABS
_RC2 3A 0 ABS
_CM1 4E1 0 ABS
_RE1 49 0 ABS
_RB3 33 0 ABS
_RD2 42 0 ABS
_RA4 2C 0 ABS
_RC3 3B 0 ABS
_CM2 4E2 0 ABS
_RE2 4A 0 ABS
_RB4 34 0 ABS
_RD3 43 0 ABS
_RA5 2D 0 ABS
_RC4 3C 0 ABS
_RB5 35 0 ABS
_RD4 44 0 ABS
_RC5 3D 0 ABS
_RB6 36 0 ABS
_RD5 45 0 ABS
_RC6 3E 0 ABS
_RB7 37 0 ABS
_RD6 46 0 ABS
_RP0 1D 0 ABS
_RC7 3F 0 ABS
_RD7 47 0 ABS
_PS0 408 0 ABS
_RP1 1E 0 ABS
_PS1 409 0 ABS
_PR2 92 0 ABS
_PS2 40A 0 ABS
__S0 2007 0 ABS
__S1 190 0 ABS
__S2 2100 0 ABS
_IBF 44F 0 ABS
_RX9 C6 0 ABS
_TX9 4C6 0 ABS
_OBF 44E 0 ABS
_CKE 4A6 0 ABS
_GIE 5F 0 ABS
_PSA 40B 0 ABS
_PCL 2 0 ABS
_PEN 48A 0 ABS
_SEN 488 0 ABS
_CKP A4 0 ABS
_CIS 4E3 0 ABS
_BOR 470 0 ABS
_IRP 1F 0 ABS
_SMP 4A7 0 ABS
_FSR 4 0 ABS
_POR 471 0 ABS
_PIE1 8C 0 ABS
_PIE2 8D 0 ABS
_CHS0 FB 0 ABS
__Hclrtext 3 0 CODE
_CHS1 FC 0 ABS
__Lclrtext 3 0 CODE
_CHS2 FD 0 ABS
_PIR1 C 0 ABS
_TMR0 1 0 ABS
_CVR0 4E8 0 ABS
_PIR2 D 0 ABS
_CVR1 4E9 0 ABS
_TMR2 11 0 ABS
_CVR2 4EA 0 ABS
_CVR3 4EB 0 ABS
_T0IE 5D 0 ABS
_RX9D C0 0 ABS
_T0IF 5A 0 ABS
_TX9D 4C0 0 ABS
_ADIE 466 0 ABS
_EEIE 46C 0 ABS
_ADIF 66 0 ABS
_RBIE 5B 0 ABS
_EEIF 6C 0 ABS
_RCIE 465 0 ABS
_INDF 0 0 ABS
_PEIE 5E 0 ABS
_T0SE 40C 0 ABS
_CMIE 46E 0 ABS
_RBIF 58 0 ABS
_RCIF 65 0 ABS
_CMIF 6E 0 ABS
_BRGH 4C2 0 ABS
_ADFM 4FF 0 ABS
_CSRC 4C7 0 ABS
_TXIE 464 0 ABS
_GCEN 48F 0 ABS
_SYNC 4C4 0 ABS
_T0CS 40D 0 ABS
_TXIF 64 0 ABS
_RCEN 48B 0 ABS
_ADGO FA 0 ABS
_INTE 5C 0 ABS
_INTF 59 0 ABS
_CREN C4 0 ABS
_ADON F8 0 ABS
_SPEN C7 0 ABS
_WCOL A7 0 ABS
_SREN C5 0 ABS
_RSEN 489 0 ABS
_WREN C62 0 ABS
_PCON 8E 0 ABS
_TXEN 4C5 0 ABS
_ZERO 1A 0 ABS
_FERR C2 0 ABS
_OERR C1 0 ABS
_STOP 4A4 0 ABS
_IBOV 44D 0 ABS
_RBPU 40F 0 ABS
_CVRR 4ED 0 ABS
_TRMT 4C1 0 ABS
___awdiv_divisor 69 0 BANK0
_main 3 0 CODE
_exit 0 0 CODE
start 0 0 CODE
__Hfloat_text0 28 0 CODE
__Lfloat_text0 28 0 CODE
??_DelayMS 64 0 BANK0
_PCFG0 4F8 0 ABS
_PCFG1 4F9 0 ABS
_PCFG2 4FA 0 ABS
__Hmaintext 28 0 CODE
__Lmaintext 3 0 CODE
_PCFG3 4FB 0 ABS
_ADCS0 FE 0 ABS
_ADCS1 FF 0 ABS
_ADCS2 4FE 0 ABS
_SSPM0 A0 0 ABS
_SSPM1 A1 0 ABS
_SSPM2 A2 0 ABS
_SSPM3 A3 0 ABS
__Beeprom_data 2100 4200 EEDATA
__Heeprom_data 0 4200 EEDATA
__Leeprom_data 0 4200 EEDATA
_TMR1H F 0 ABS
_TMR1L E 0 ABS
_EEPGD C67 0 ABS
_BCLIE 46B 0 ABS
_BCLIF 6B 0 ABS
_RCREG 1A 0 ABS
_TRISA 85 0 ABS
__Hinit23 0 0 CODE
_PSPIE 467 0 ABS
_SSPIE 463 0 ABS
_RCSTA 18 0 ABS
_TRISB 86 0 ABS
__Linit23 0 0 CODE
_PSPIF 67 0 ABS
_ADDEN C3 0 ABS
_SSPIF 63 0 ABS
_TRISC 87 0 ABS
_TXREG 19 0 ABS
_PORTA 5 0 ABS
_TRISD 88 0 ABS
_PORTB 6 0 ABS
_ACKEN 48C 0 ABS
_SPBRG 99 0 ABS
_CVROE 4EE 0 ABS
_TXSTA 98 0 ABS
_TRISE 89 0 ABS
_PORTC 7 0 ABS
_CCP1X BD 0 ABS
_EEADR 10D 0 ABS
_PORTD 8 0 ABS
_CCP2X ED 0 ABS
_T1CON 10 0 ABS
_T2CON 12 0 ABS
_CCP1Y BC 0 ABS
_PORTE 9 0 ABS
_CCP2Y EC 0 ABS
_CVREN 4EF 0 ABS
_CMCON 9C 0 ABS
_SSPEN A5 0 ABS
_ACKDT 48D 0 ABS
_C1INV 4E4 0 ABS
_C2INV 4E5 0 ABS
_WRERR C63 0 ABS
_C1OUT 4E6 0 ABS
_C2OUT 4E7 0 ABS
_START 4A3 0 ABS
_SSPOV A6 0 ABS
_CARRY 18 0 ABS
?_main 57 0 BANK0
__end_of_main 28 0 CODE
_CCP1M0 B8 0 ABS
_CCP2M0 E8 0 ABS
_CCP1M1 B9 0 ABS
__Hfloat_text4 28 0 CODE
_CCP2M1 E9 0 ABS
__Lfloat_text4 28 0 CODE
_CCP1M2 BA 0 ABS
_CCP2M2 EA 0 ABS
_CCP1M3 BB 0 ABS
_TRISA0 428 0 ABS
_CCP2M3 EB 0 ABS
_TRISB0 430 0 ABS
_TRISA1 429 0 ABS
_TRISC0 438 0 ABS
_TRISB1 431 0 ABS
_TRISD0 440 0 ABS
_TRISA2 42A 0 ABS
_TRISC1 439 0 ABS
_TRISE0 448 0 ABS
_TRISB2 432 0 ABS
_TRISD1 441 0 ABS
_TRISA3 42B 0 ABS
_TRISC2 43A 0 ABS
_TRISE1 449 0 ABS
_ADCON0 1F 0 ABS
_TRISB3 433 0 ABS
_TRISD2 442 0 ABS
_TRISA4 42C 0 ABS
_TRISC3 43B 0 ABS
_TRISE2 44A 0 ABS
_ADCON1 9F 0 ABS
_EECON1 18C 0 ABS
_TRISB4 434 0 ABS
_TRISD3 443 0 ABS
_TRISA5 42D 0 ABS
_TRISC4 43C 0 ABS
_EECON2 18D 0 ABS
_TRISB5 435 0 ABS
_TRISD4 444 0 ABS
_TRISC5 43D 0 ABS
_TRISB6 436 0 ABS
_TRISD5 445 0 ABS
_TRISC6 43E 0 ABS
_TRISB7 437 0 ABS
_TRISD6 446 0 ABS
_TRISC7 43F 0 ABS
_TRISD7 447 0 ABS
_CCPR1H 16 0 ABS
_CCPR2H 1C 0 ABS
_CCP1IE 462 0 ABS
_CCP2IE 468 0 ABS
_CCP1IF 62 0 ABS
_TMR0IE 5D 0 ABS
_CCP2IF 68 0 ABS
_TMR1IE 460 0 ABS
_TMR2IE 461 0 ABS
_SSPADD 93 0 ABS
_TMR0IF 5A 0 ABS
_TMR1IF 60 0 ABS
_TMR2IF 61 0 ABS
_CCPR1L 15 0 ABS
__Hintentry 0 0 CODE
__Lintentry 0 0 CODE
_CCPR2L 1B 0 ABS
_EEDATA 10C 0 ABS
_INTEDG 40E 0 ABS
_GODONE FA 0 ABS
_T1SYNC 82 0 ABS
_EEADRH 10F 0 ABS
_EEDATH 10E 0 ABS
__Brbit_0 57 FFFFFD9F BANK0
_PCLATH A 0 ABS
_TMR1CS 81 0 ABS
__Hrbit_0 2B8 FFFFFD9F BANK0
__Lrbit_0 2B8 FFFFFD9F BANK0
_SSPBUF 13 0 ABS
_ADRESH 1E 0 ABS
_TMR1ON 80 0 ABS
_TMR2ON 92 0 ABS
_EEADRL 10D 0 ABS
__Brbit_1 A0 FFFFFBA0 BANK1
_playTone_k 63 0 BANK0
__Hrbss_0 57 0 BANK0
__Hrbit_1 500 FFFFFBA0 BANK1
__Lrbss_0 57 0 BANK0
__Lrbit_1 500 FFFFFBA0 BANK1
_ADRESL 9E 0 ABS
?_playMusic 59 0 BANK0
_INTCON B 0 ABS
_CVRCON 9D 0 ABS
_SSPCON 14 0 ABS
_OPTION 81 0 ABS
__Brbit_2 110 FFFFF890 BANK2
__Hrbss_1 A0 0 BANK1
__Hrbit_2 880 FFFFF890 BANK2
__Lrbss_1 A0 0 BANK1
__Lrbit_2 880 FFFFF890 BANK2
__Brbit_3 190 FFFFF510 BANK3
__Hrbss_2 110 0 BANK2
__Hrbit_3 C80 FFFFF510 BANK3
__Lrbss_2 110 0 BANK2
__Lrbit_3 C80 FFFFF510 BANK3
_STATUS 3 0 ABS
__Hrbss_3 190 0 BANK3
__Lrbss_3 190 0 BANK3
intlevel0 0 0 CODE
intlevel1 0 0 CODE
??_playTone 62 0 BANK0
intlevel2 0 0 CODE
intlevel3 0 0 CODE
__Hfloat_text1 28 0 CODE
__Lfloat_text1 28 0 CODE
intlevel4 0 0 CODE
intlevel5 0 0 CODE
__Hcode 50 0 ABS
__Lcode 50 0 ABS
__end_of___wmul 6CC 0 CODE
??_main 57 0 BANK0
__Htemp 70 0 BANK0
__Ltemp 70 0 BANK0
__Hinit 0 0 CODE
__Linit 0 0 CODE
___wmul 6A2 0 CODE
__Htext 50 0 ABS
__Ltext 50 0 ABS
_playMusic_i 5D 0 BANK0
__Hreset_vec 0 0 CODE
__Lreset_vec 0 0 CODE
___awdiv_counter 6B 0 BANK0
?_DelayMS 62 0 BANK0
___awdiv_sign 6C 0 BANK0
_T1CKPS0 84 0 ABS
_T2CKPS0 90 0 ABS
_SSPCON2 91 0 ABS
_T1CKPS1 85 0 ABS
_T2CKPS1 91 0 ABS
_TOUTPS0 93 0 ABS
_playMusic_j 5B 0 BANK0
_TOUTPS1 94 0 ABS
_TOUTPS2 95 0 ABS
_TOUTPS3 96 0 ABS
__Hidata_0 28 0 CODE
__Lidata_0 28 0 CODE
__Hrdata_0 57 0 ABS
__Lrdata_0 23 0 ABS
__Hidata_1 28 0 CODE
__Lidata_1 28 0 CODE
___awdiv_dividend 67 0 BANK0
__Hrdata_1 A0 0 BANK1
__Lrdata_1 A0 0 BANK1
__Hintsave_1 50 0 ABS
__Lintsave_1 50 0 ABS
_PSPMODE 44C 0 ABS
__Hidata_2 28 0 CODE
__Hramdata 57 0 ABS
__Lidata_2 28 0 CODE
__Lramdata 23 0 ABS
__Hintcode 0 0 CODE
__Lintcode 0 0 CODE
__Hrdata_2 110 0 BANK2
__Lrdata_2 110 0 BANK2
_SONG_TONE 3D 0 ABS
___wmul_multiplier 62 0 BANK0
__Hidata_3 28 0 CODE
__Lidata_3 28 0 CODE
__Hrdata_3 190 0 BANK3
__Lrdata_3 190 0 BANK3
__Hnvram_1 A0 0 BANK1
__Lnvram_1 A0 0 BANK1
_T1OSCEN 83 0 ABS
_SONG_LONG 23 0 ABS
_CCP1CON 17 0 ABS
_CCP2CON 1D 0 ABS
_playMusic 6F8 0 CODE
__Bptbit_0 50 FFFFFDD0 ABS
__Bnvbit_0 50 FFFFFDD0 ABS
__Hptbit_0 280 FFFFFDD0 ABS
__Lptbit_0 280 FFFFFDD0 ABS
__Hnvbit_0 280 FFFFFDD0 ABS
__Lnvbit_0 280 FFFFFDD0 ABS
__Hnvram_2 110 0 BANK2
__Lnvram_2 110 0 BANK2
??_playMusic 5A 0 BANK0
__Bnvbit_1 A0 FFFFFBA0 BANK1
___wmul_multiplicand 64 0 BANK0
__Hnvbit_1 500 FFFFFBA0 BANK1
__Lnvbit_1 500 FFFFFBA0 BANK1
__Hnvram_3 190 0 BANK3
__Hfloat_text2 28 0 CODE
__Lnvram_3 190 0 BANK3
__Lfloat_text2 28 0 CODE
?_playTone 62 0 BANK0
_ACKSTAT 48E 0 ABS
__Hintsave_2 50 0 ABS
__Lintsave_2 50 0 ABS
_SSPSTAT 94 0 ABS
__Bnvbit_2 110 FFFFF890 BANK2
__Hnvbit_2 880 FFFFF890 BANK2
__Lnvbit_2 880 FFFFF890 BANK2
__Bnvbit_3 190 FFFFF510 BANK3
___wmul_product 66 0 BANK0
__Hnvbit_3 C80 FFFFF510 BANK3
__Lnvbit_3 C80 FFFFF510 BANK3
__Hfnautoc 70 0 COMMON
__Lfnautoc 70 0 COMMON
__databank 0 0 ABS
_playTone_Tone 62 0 BANK0
___awdiv_quotient 6D 0 BANK0
__Hintsave 50 0 ABS
__Lintsave 50 0 ABS
__Hintsave_3 50 0 ABS
__Lintsave_3 50 0 ABS
_DelayMS 0 0 ABS
__end_of_playTone 758 0 CODE
_playMusic_SONG_TONE 59 0 BANK0
_playMusic_SONG_LONG 5A 0 BANK0
reset_vec 0 0 CODE
__Hfnauto0 70 0 BANK0
__Lfnauto0 57 0 BANK0
__Hconfig 2007 0 CONFIG
__Lconfig 2007 0 CONFIG
_playTone 6CC 0 CODE
__Hfnauto1 A0 0 BANK1
__Lfnauto1 A0 0 BANK1
__tempreg 57 0 ABS
__Hpstrings 28 0 CODE
__Lpstrings 28 0 CODE
__Hend_init 3 0 CODE
__Lend_init 0 0 CODE
__Hfnauto2 110 0 BANK2
__Lfnauto2 110 0 BANK2
__Hfnauto3 190 0 BANK3
__Lfnauto3 190 0 BANK3
__Hidata 800 0 CODE
__Lidata 7CC 0 CODE
__end_of_playMusic 6A2 0 CODE
__Hidloc 2000 0 IDLOC
__Lidloc 2000 0 IDLOC
__Hstrings 100 0 CODE
__Lstrings 100 0 CODE
__Hnvram 57 0 BANK0
__Hcommon 70 0 COMMON
__Lnvram 57 0 BANK0
__Lcommon 70 0 COMMON
??___awdiv 6B 0 BANK0
??___wmul 66 0 BANK0
__end_of___awdiv 28 0 CODE
?___awdiv 67 0 BANK0
__Hintret 0 0 CODE
__Lintret 0 0 CODE
_main_ms 57 0 BANK0
__Hstruct 70 0 BANK0
__Lstruct 70 0 BANK0
?___wmul 62 0 BANK0
__Hfloat_text3 28 0 CODE
__Lfloat_text3 28 0 CODE
___awdiv 758 0 CODE
%segments
reset_vec 0 4F CODE 0
rbss_0 57 6F BANK0 57
idata F98 FFF CODE F98
text48 EB0 F97 CODE EB0
text45 DF0 EAF CODE DF0
text47 D98 DEF CODE D98
text46 D44 D97 CODE D44
%locals
startup.obj
startup.as
120 0 0 CODE
PIC_doorbell.obj
D:\out_school_doc\PIC_doorbell\main.c
25 3 0 CODE
26 6 0 CODE
28 9 0 CODE
29 13 0 CODE
30 19 0 CODE
27 24 0 CODE
D:\out_school_doc\PIC_doorbell\sound_helper.c
12 6F8 0 CODE
13 6F9 0 CODE
14 6FD 0 CODE
16 6FE 0 CODE
17 703 0 CODE
16 70D 0 CODE
19 735 0 CODE
20 73E 0 CODE
14 746 0 CODE
22 757 0 CODE
C:\Program Files (x86)\HI-TECH Software\PICC\PRO\9.65\sources\wmul.c
4 6A2 0 CODE
7 6A6 0 CODE
8 6AA 0 CODE
9 6B0 0 CODE
10 6B7 0 CODE
11 6BE 0 CODE
12 6C4 0 CODE
13 6CB 0 CODE
D:\out_school_doc\PIC_doorbell\sound_helper.c
6 6CC 0 CODE
7 6CD 0 CODE
9 6CF 0 CODE
10 6F7 0 CODE
C:\Program Files (x86)\HI-TECH Software\PICC\PRO\9.65\sources\awdiv.c
9 758 0 CODE
10 75D 0 CODE
11 761 0 CODE
12 766 0 CODE
14 769 0 CODE
15 76D 0 CODE
16 772 0 CODE
18 776 0 CODE
19 77A 0 CODE
20 780 0 CODE
21 783 0 CODE
22 784 0 CODE
23 78B 0 CODE
21 78F 0 CODE
26 793 0 CODE
27 79A 0 CODE
28 7A4 0 CODE
29 7AA 0 CODE
31 7AE 0 CODE
32 7B5 0 CODE
34 7BB 0 CODE
35 7BF 0 CODE
36 7C4 0 CODE
37 7CB 0 CODE
D:\out_school_doc\PIC_doorbell\main.c
7 7CC 0 CODE
6 7E6 0 CODE
